Chapter 5
…
Another way to do PP check

draw_df

# A tibble: 4,000 × 114
    lp__ `b[1]` `b[2]` `b[3]`  sigma `mu[1]` `mu[2]` `mu[3]` `mu[4]` `mu[5]`
   <dbl>  <dbl>  <dbl>  <dbl>  <dbl>   <dbl>   <dbl>   <dbl>   <dbl>   <dbl>
 1  135.  0.125  0.132  0.490 0.0376   0.542   0.574   0.603   0.614   0.508
 2  134.  0.114  0.126  0.486 0.0344   0.527   0.554   0.588   0.594   0.488
 3  136.  0.123  0.154  0.457 0.0418   0.512   0.572   0.570   0.610   0.511
 4  135.  0.111  0.144  0.485 0.0439   0.523   0.568   0.584   0.608   0.502
 5  137.  0.130  0.136  0.470 0.0339   0.529   0.569   0.588   0.607   0.505
 6  137.  0.136  0.151  0.451 0.0389   0.520   0.578   0.576   0.615   0.517
 7  137.  0.143  0.150  0.440 0.0396   0.517   0.577   0.572   0.613   0.518
 8  135.  0.158  0.138  0.441 0.0373   0.534   0.581   0.589   0.617   0.521
 9  136.  0.162  0.137  0.426 0.0439   0.524   0.574   0.578   0.609   0.517
10  132.  0.147  0.116  0.436 0.0441   0.518   0.544   0.572   0.580   0.485
# ℹ 3,990 more rows
# ℹ 104 more variables: `mu[6]` <dbl>, `mu[7]` <dbl>, `mu[8]` <dbl>,
#   `mu[9]` <dbl>, `mu[10]` <dbl>, `mu[11]` <dbl>, `mu[12]` <dbl>,
#   `mu[13]` <dbl>, `mu[14]` <dbl>, `mu[15]` <dbl>, `mu[16]` <dbl>,
#   `mu[17]` <dbl>, `mu[18]` <dbl>, `mu[19]` <dbl>, `mu[20]` <dbl>,
#   `mu[21]` <dbl>, `mu[22]` <dbl>, `mu[23]` <dbl>, `mu[24]` <dbl>,
#   `mu[25]` <dbl>, `mu[26]` <dbl>, `mu[27]` <dbl>, `mu[28]` <dbl>, …
…
All 4 chains finished successfully.
Mean chain execution time: 0.7 seconds.
Total execution time: 1.1 seconds.

fit$summary()

# A tibble: 104 × 10
   variable      mean    median      sd     mad       q5      q95  rhat ess_bulk
   <chr>        <dbl>     <dbl>   <dbl>   <dbl>    <dbl>    <dbl> <dbl>    <dbl>
 1 lp__     -298.     -298.     1.22    1.01    -3.00e+2 -2.97e+2  1.00    1361.
 2 b[1]       -1.49     -1.48   0.399   0.392   -2.17e+0 -8.58e-1  1.00    1467.
 3 b[2]        0.0982    0.104  0.203   0.207   -2.34e-1  4.24e-1  1.00    1939.
 4 b[3]        0.0159    0.0157 0.00567 0.00562  6.76e-3  2.57e-2  1.00    1555.
 5 q[1]        0.467     0.467  0.0472  0.0489   3.88e-1  5.43e-1  1.00    2273.
 6 q[2]        0.411     0.411  0.0306  0.0302   3.60e-1  4.62e-1  1.00    2767.
 7 q[3]        0.516     0.517  0.0592  0.0610   4.17e-1  6.12e-1  1.00    2056.
 8 q[4]        0.443     0.443  0.0312  0.0314   3.91e-1  4.93e-1  1.00    3089.
 9 q[5]        0.361     0.360  0.0365  0.0363   3.00e-1  4.22e-1  1.00    2047.
10 q[6]        0.474     0.474  0.0488  0.0505   3.92e-1  5.53e-1  1.00    2237.
# ℹ 94 more rows
# ℹ 1 more variable: ess_tail <dbl>
…
All 4 chains finished successfully.
Mean chain execution time: 5.1 seconds.
Total execution time: 5.6 seconds.

fit_5.5$summary()

# A tibble: 893 × 10
   variable      mean    median      sd     mad       q5      q95  rhat ess_bulk
   <chr>        <dbl>     <dbl>   <dbl>   <dbl>    <dbl>    <dbl> <dbl>    <dbl>
 1 lp__     -275.     -275.     1.49    1.21    -2.78e+2 -2.74e+2  1.01    1606.
 2 b[1]       -2.01     -2.01   0.438   0.449   -2.73e+0 -1.31e+0  1.00    1815.
 3 b[2]        0.267     0.264  0.219   0.221   -8.65e-2  6.30e-1  1.00    2483.
 4 b[3]        0.0166    0.0166 0.00603 0.00610  6.85e-3  2.62e-2  1.00    1811.
 5 b[4]        1.66      1.66   0.249   0.249    1.26e+0  2.08e+0  1.00    2518.
 6 q[1]        0.355     0.355  0.0492  0.0489   2.75e-1  4.37e-1  1.00    2709.
 7 q[2]        0.739     0.742  0.0518  0.0528   6.50e-1  8.19e-1  1.00    2964.
 8 q[3]        0.355     0.355  0.0492  0.0489   2.75e-1  4.37e-1  1.00    2709.
 9 q[4]        0.355     0.355  0.0492  0.0489   2.75e-1  4.37e-1  1.00    2709.
10 q[5]        0.739     0.742  0.0518  0.0528   6.50e-1  8.19e-1  1.00    2964.
# ℹ 883 more rows
# ℹ 1 more variable: ess_tail <dbl>
…
All 4 chains finished successfully.
Mean chain execution time: 0.4 seconds.
Total execution time: 2.8 seconds.

fit_5.6$summary()

# A tibble: 104 × 10
   variable        mean   median      sd     mad       q5     q95  rhat ess_bulk
   <chr>          <dbl>    <dbl>   <dbl>   <dbl>    <dbl>   <dbl> <dbl>    <dbl>
 1 lp__         5.32e+2  5.32e+2 1.26    0.990    5.29e+2 5.33e+2  1.00    1401.
 2 b[1]         2.10e+0  2.10e+0 0.198   0.195    1.78e+0 2.43e+0  1.00    1468.
 3 b[2]         3.71e-1  3.72e-1 0.0959  0.0966   2.14e-1 5.26e-1  1.00    1788.
 4 b[3]        -1.80e-3 -1.71e-3 0.00277 0.00273 -6.44e-3 2.63e-3  1.00    1719.
 5 log_lambda…  1.94e+0  1.95e+0 0.0919  0.0888   1.79e+0 2.09e+0  1.00    2398.
 6 log_lambda…  2.35e+0  2.35e+0 0.0616  0.0620   2.25e+0 2.45e+0  1.00    3104.
 7 log_lambda…  1.92e+0  1.92e+0 0.115   0.112    1.73e+0 2.11e+0  1.00    2287.
 8 log_lambda…  2.34e+0  2.34e+0 0.0637  0.0643   2.23e+0 2.44e+0  1.00    2890.
 9 log_lambda…  2.38e+0  2.38e+0 0.0748  0.0740   2.25e+0 2.50e+0  1.00    2511.
10 log_lambda…  1.94e+0  1.94e+0 0.0948  0.0913   1.78e+0 2.10e+0  1.00    2384.
# ℹ 94 more rows
# ℹ 1 more variable: ess_tail <dbl>
…
All 4 chains finished successfully.
Mean chain execution time: 0.8 seconds.
Total execution time: 4.3 seconds.

fit_5.7$summary()

# A tibble: 56 × 10
   variable      mean    median       sd     mad       q5     q95  rhat ess_bulk
   <chr>        <dbl>     <dbl>    <dbl>   <dbl>    <dbl>   <dbl> <dbl>    <dbl>
 1 lp__     124.      124.      1.60     1.45e+0  1.21e+2 1.26e+2  1.00    1539.
 2 b[1]       0.145     0.144   0.0134   1.32e-2  1.22e-1 1.67e-1  1.00    2845.
 3 b[2]       0.00588   0.00588 0.000192 1.89e-4  5.57e-3 6.19e-3  1.00    3194.
 4 b[3]      -0.00211  -0.00219 0.00769  7.52e-3 -1.47e-2 1.08e-2  1.00    2733.
 5 b[4]       0.0368    0.0368  0.0107   1.08e-2  1.93e-2 5.41e-2  1.00    2497.
 6 sigma      0.0486    0.0482  0.00521  5.02e-3  4.10e-2 5.80e-2  1.00    2140.
 7 mu[1]      0.546     0.546   0.0127   1.24e-2  5.25e-1 5.66e-1  1.00    3341.
 8 mu[2]      0.549     0.549   0.0106   1.08e-2  5.32e-1 5.67e-1  1.00    2939.
 9 mu[3]      0.607     0.607   0.0175   1.77e-2  5.77e-1 6.35e-1  1.00    3056.
10 mu[4]      0.643     0.643   0.0127   1.27e-2  6.22e-1 6.63e-1  1.00    2897.
# ℹ 46 more rows
# ℹ 1 more variable: ess_tail <dbl>
