Chapter 7
…
All 4 chains finished successfully.
Mean chain execution time: 0.2 seconds.
Total execution time: 1.6 seconds.

fit_7.1$summary()

# A tibble: 254 × 10
   variable   mean median     sd    mad     q5    q95  rhat ess_bulk ess_tail
   <chr>     <dbl>  <dbl>  <dbl>  <dbl>  <dbl>  <dbl> <dbl>    <dbl>    <dbl>
 1 lp__     -532.  -532.   1.28   1.01  -534.  -531.   1.00    1514.    2116.
 2 b[1]     -148.  -148.  29.0   29.1   -195.  -101.   1.00    1421.    1518.
 3 b[2]       14.0   14.0  0.701  0.735   12.9   15.1  1.00    1457.    2009.
 4 sigma     131.   131.   9.72   9.60   117.   148.   1.01    2114.    2020.
 5 mu[1]     421.   420.  13.6   13.0    399.   443.   1.00    5423.    3098.
 6 mu[2]     718.   718.  22.1   21.8    682.   754.   1.00    2694.    2949.
 7 mu[3]     623.   623.  18.5   18.3    593.   653.   1.00    3394.    3265.
 8 mu[4]     646.   646.  19.3   19.2    615.   678.   1.00    3175.    3138.
 9 mu[5]     646.   646.  19.3   19.2    615.   678.   1.00    3175.    3138.
10 mu[6]      69.0   68.9 19.9   19.6     36.8  102.   1.00    1622.    2052.
# ℹ 244 more rows
…
All 4 chains finished successfully.
Mean chain execution time: 0.2 seconds.
Total execution time: 1.5 seconds.

fit_7.1log$summary()

# A tibble: 254 × 10
   variable    mean  median      sd     mad       q5     q95  rhat ess_bulk
   <chr>      <dbl>   <dbl>   <dbl>   <dbl>    <dbl>   <dbl> <dbl>    <dbl>
 1 lp__     168.    168.    1.27    1.01    165.     169.     1.00    1306.
 2 b[1]       0.798   0.797 0.0883  0.0900    0.653    0.946  1.00    1139.
 3 b[2]       1.11    1.11  0.0576  0.0594    1.01     1.20   1.00    1139.
 4 sigma      0.112   0.111 0.00808 0.00793   0.0992   0.125  1.00    1501.
 5 mu[1]      2.58    2.58  0.0124  0.0122    2.56     2.60   1.00    3370.
 6 mu[2]      2.78    2.78  0.0193  0.0195    2.75     2.82   1.00    1655.
 7 mu[3]      2.73    2.73  0.0170  0.0171    2.70     2.76   1.00    1857.
 8 mu[4]      2.74    2.74  0.0176  0.0178    2.71     2.77   1.00    1796.
 9 mu[5]      2.74    2.74  0.0176  0.0178    2.71     2.77   1.00    1796.
10 mu[6]      2.12    2.12  0.0221  0.0221    2.08     2.15   1.00    1357.
# ℹ 244 more rows
# ℹ 1 more variable: ess_tail <dbl>
…
All 4 chains finished successfully.
Mean chain execution time: 0.1 seconds.
Total execution time: 0.3 seconds.

fit_7.3$summary()

# A tibble: 70 × 10
   variable    mean median    sd    mad     q5    q95  rhat ess_bulk ess_tail
   <chr>      <dbl>  <dbl> <dbl>  <dbl>  <dbl>  <dbl> <dbl>    <dbl>    <dbl>
 1 lp__     -0.0822  0.393 1.77  1.44   -3.66   1.87   1.00     757.     645.
 2 a        13.1    13.1   0.814 0.590  11.9   14.3    1.00    1041.     774.
 3 b         0.249   0.238 0.112 0.0297  0.187  0.319  1.00     980.     626.
 4 sigma     0.853   0.709 0.560 0.296   0.398  1.76   1.00     795.     894.
 5 yrep[1]   2.81    2.79  1.08  0.766   1.23   4.36   1.00    3424.    2224.
 6 yrep[2]   4.99    4.97  1.18  0.786   3.36   6.71   1.00    2952.    1886.
 7 yrep[3]   8.07    8.05  1.17  0.827   6.50   9.73   1.00    3454.    2688.
 8 yrep[4]  11.1    11.1   1.13  0.811   9.50  12.7    1.00    3734.    2159.
 9 yrep[5]  12.3    12.3   1.18  0.812  10.6   13.9    1.00    3195.    1657.
10 yrep[6]  13.0    13.1   1.26  0.893  11.2   14.8    1.00    2229.    1624.
# ℹ 60 more rows
…
